PresentationShiny
…
TourismData1 <- select(TourismData, "Data Source", "World Development Indicators", "X__38", "X__39", "X__40", "X__41", "X__42", "X__43", "X__44", "X__45", "X__46", "X__47", "X__48", "X__49", "X__50", "X__51", "X__52", "X__53", "X__54", "X__55", "X__56", "X__57", "X__58", "X__59", "X__60") 
names(TourismData1) <- c("country", "country_code", "year1995", "1996", "1997", "1998", "1999", "year2000", "2001", "2002", "2003", "2004", "year2005", "2006", "2007", "2008", "2009", "year2010", "2011", "2012", "2013", "2014", "2015", "year2016", "2017")
TourismData1 = TourismData1 [-1:-4,]

TourismData1 <- TourismData1[-c(5, 34,36, 47, 59, 60, 61, 62, 63, 66, 72, 93, 96, 100, 101, 102, 103, 105, 108, 126, 132, 133, 134, 137, 138, 140, 151, 154, 159, 168, 179, 181, 189, 195, 196, 213, 215, 216, 228,229, 234, 236, 238, 239, 247), ]

TourismData1$year1995 <- as.numeric(TourismData1$year1995)
TourismData1$year2000 <- as.numeric(TourismData1$year2000)
TourismData1$year2005 <- as.numeric(TourismData1$year2005)
TourismData1$year2010 <- as.numeric(TourismData1$year2010)
TourismData1$year2016 <- as.numeric(TourismData1$year2016)

TourismData1

## # A tibble: 218 x 25
##                 country country_code year1995  `1996`  `1997`  `1998`
##                   <chr>        <chr>    <dbl>   <chr>   <chr>   <chr>
##  1          Afghanistan          AFG       NA    <NA>    <NA>    <NA>
##  2               Angola          AGO     9000   21000   45000   52000
##  3              Albania          ALB   304000  287000  119000  184000
##  4              Andorra          AND       NA    <NA>    <NA>    <NA>
##  5 United Arab Emirates          ARE  2315000 2572000 2476000 2991000
##  6            Argentina          ARG  2289000 2614000 2764000 3012000
##  7              Armenia          ARM    12000   13000   23000   32000
##  8       American Samoa          ASM    34000   35000   26000   36000
##  9  Antigua and Barbuda          ATG   220000  228000  240000  234000
## 10            Australia          AUS  3726000 4165000 4318000 4167000
## # ... with 208 more rows, and 19 more variables: `1999` <chr>,
## #   year2000 <dbl>, `2001` <chr>, `2002` <chr>, `2003` <chr>,
## #   `2004` <chr>, year2005 <dbl>, `2006` <chr>, `2007` <chr>,
## #   `2008` <chr>, `2009` <chr>, year2010 <dbl>, `2011` <chr>,
## #   `2012` <chr>, `2013` <chr>, `2014` <chr>, `2015` <chr>,
## #   year2016 <dbl>, `2017` <chr>
…
Graph <- TourismData1 %>%
  select(country,year2016) %>%
  arrange(desc(year2016)) %>%
  group_by(year2016)

LeastVisited <- TourismData1 %>%
select(country, year2016) %>%
arrange(year2016)
  print(LeastVisited, n=10)

## # A tibble: 218 x 2
##                  country year2016
##                    <chr>    <dbl>
##  1                Tuvalu     2500
##  2              Kiribati     5700
##  3      Marshall Islands     9800
##  4        American Samoa    20100
##  5       Solomon Islands    23200
##  6               Comoros    26800
##  7 Sao Tome and Principe    29000
##  8 Micronesia, Fed. Sts.    29600
##  9          Sierra Leone    55000
## 10                 Tonga    59100
## # ... with 208 more rows

HighestOverallIncrease <- TourismData1 %>%
  select(country, year1995, year2016) %>%
  mutate(indec = year2016 - year1995) %>%
  arrange(desc(indec))
print(HighestOverallIncrease, n=10)

## # A tibble: 218 x 4
##           country  year1995   year2016     indec
##             <chr>     <dbl>      <dbl>     <dbl>
##  1          World 524006000 1244960000 720954000
##  2 European Union 258870000  482410000 223540000
##  3          Spain  32971000   75315000  42344000
##  4          China  20034000   59270000  39236000
##  5  United States  43318000   75608000  32290000
##  6       Thailand   6952000   32530000  25578000
##  7         Turkey   7083000   30289000  23206000
##  8         France  60033000   82570000  22537000
##  9          Italy  31052000   52372000  21320000
## 10        Germany  14847000   35555000  20708000
## # ... with 208 more rows

HighestOverallDecrease <- TourismData1 %>%
  select(country, year1995, year2016) %>%
  mutate(indec = year2016 - year1995) %>%
  arrange(indec)
print(HighestOverallDecrease, n=10)

## # A tibble: 218 x 4
##                     country year1995 year2016    indec
##                       <chr>    <dbl>    <dbl>    <dbl>
##  1                   Poland 19215000 17471000 -1744000
##  2                  Eritrea   315000   142000  -173000
##  3 Northern Mariana Islands   676000   531000  -145000
##  4                  Bermuda   387000   244000  -143000
##  5             Bahamas, The  1598000  1482000  -116000
##  6            Venezuela, RB   700000   601000   -99000
##  7           American Samoa    34000    20100   -13900
##  8            Liechtenstein    59000    60000     1000
##  9                   Tuvalu      900     2500     1600
## 10                 Kiribati     3900     5700     1800
## # ... with 208 more rows
…
## Warning: Column `country` joining factor and character vector, coercing
## into character vector

VisGdp <- das %>%
  select(country, visitors, continent, year, lifeExp, pop, gdpPercap, gdp) %>%
  filter(year == 2007) %>%
  arrange(visitors, gdp)
  print(VisGdp, n=5)

## # A tibble: 142 x 8
##        country visitors continent  year lifeExp      pop gdpPercap
##          <chr>    <chr>    <fctr> <int>   <dbl>    <int>     <dbl>
## 1      Lebanon  1017000      Asia  2007  71.993  3921278 10461.059
## 2      Albania  1062000    Europe  2007  76.423  3600523  5937.030
## 3  Netherlands 11008000    Europe  2007  79.762 16570613 36797.933
## 4       Panama  1103000  Americas  2007  75.537  3242173  9809.186
## 5 Saudi Arabia 11531000      Asia  2007  72.777 27601038 21654.832
## # ... with 137 more rows, and 1 more variables: gdp <dbl>
